-- Merging decision tree log ---
manifest
ADDED from G:\UnityProjects\theracoonstory\GradleBuild\The Raccoon Story\src\main\AndroidManifest.xml:2:1-39:12
INJECTED from G:\UnityProjects\theracoonstory\GradleBuild\The Raccoon Story\src\main\AndroidManifest.xml:2:1-39:12
INJECTED from G:\UnityProjects\theracoonstory\GradleBuild\The Raccoon Story\src\main\AndroidManifest.xml:2:1-39:12
INJECTED from G:\UnityProjects\theracoonstory\GradleBuild\The Raccoon Story\src\main\AndroidManifest.xml:2:1-39:12
MERGED from [:androidx.appcompat.appcompat-1.0.0:] C:\Users\Vladimir\.gradle\caches\transforms-2\files-2.1\ad5ee043503300e453e57ce9dec032d9\AndroidManifest.xml:17:1-22:12
MERGED from [:androidx.arch.core.core-runtime-2.0.0:] C:\Users\Vladimir\.gradle\caches\transforms-2\files-2.1\cf7b86ce64a9391c03754096dbce4ca2\AndroidManifest.xml:17:1-22:12
MERGED from [:androidx.asynclayoutinflater.asynclayoutinflater-1.0.0:] C:\Users\Vladimir\.gradle\caches\transforms-2\files-2.1\c2a908f9da118ff15eabd7fa93635953\AndroidManifest.xml:17:1-22:12
MERGED from [:androidx.browser.browser-1.0.0:] C:\Users\Vladimir\.gradle\caches\transforms-2\files-2.1\ce03a53788ae80d945944bc4006f38f8\AndroidManifest.xml:17:1-22:12
MERGED from [:androidx.cardview.cardview-1.0.0:] C:\Users\Vladimir\.gradle\caches\transforms-2\files-2.1\9ede0030730888bd3dcd5f846951310c\AndroidManifest.xml:17:1-22:12
MERGED from [:androidx.coordinatorlayout.coordinatorlayout-1.0.0:] C:\Users\Vladimir\.gradle\caches\transforms-2\files-2.1\0987ec7c06cfdb6ef8d1a2089c1baa9b\AndroidManifest.xml:17:1-22:12
MERGED from [:androidx.core.core-1.0.0:] C:\Users\Vladimir\.gradle\caches\transforms-2\files-2.1\929fb6195623d5a396325c19f7418b58\AndroidManifest.xml:17:1-24:12
MERGED from [:androidx.cursoradapter.cursoradapter-1.0.0:] C:\Users\Vladimir\.gradle\caches\transforms-2\files-2.1\d99dab980c7fccbf837ef900c4c8ba28\AndroidManifest.xml:17:1-22:12
MERGED from [:androidx.customview.customview-1.0.0:] C:\Users\Vladimir\.gradle\caches\transforms-2\files-2.1\9d41fc4fef2a1f219bfcae67044740d2\AndroidManifest.xml:17:1-22:12
MERGED from [:androidx.documentfile.documentfile-1.0.0:] C:\Users\Vladimir\.gradle\caches\transforms-2\files-2.1\7f7e84f517de07abfa09ac2d07921ff4\AndroidManifest.xml:17:1-22:12
MERGED from [:androidx.drawerlayout.drawerlayout-1.0.0:] C:\Users\Vladimir\.gradle\caches\transforms-2\files-2.1\8f44a04704714ec8cf04e6586b4df66d\AndroidManifest.xml:17:1-22:12
MERGED from [:androidx.fragment.fragment-1.0.0:] C:\Users\Vladimir\.gradle\caches\transforms-2\files-2.1\6a60cfd7f8ca0c86abd49a4c81df5e2a\AndroidManifest.xml:17:1-22:12
MERGED from [:androidx.interpolator.interpolator-1.0.0:] C:\Users\Vladimir\.gradle\caches\transforms-2\files-2.1\f407728e726e4767687ff1fa08ee329f\AndroidManifest.xml:17:1-22:12
MERGED from [:androidx.legacy.legacy-support-core-ui-1.0.0:] C:\Users\Vladimir\.gradle\caches\transforms-2\files-2.1\aa05b8ba233e590d0582c1a37c732e21\AndroidManifest.xml:17:1-22:12
MERGED from [:androidx.legacy.legacy-support-core-utils-1.0.0:] C:\Users\Vladimir\.gradle\caches\transforms-2\files-2.1\ebe46714c77de90d63f17240a2b45280\AndroidManifest.xml:17:1-22:12
MERGED from [:androidx.legacy.legacy-support-v4-1.0.0:] C:\Users\Vladimir\.gradle\caches\transforms-2\files-2.1\5c0417b9ac20d03762ef08a626e97e8e\AndroidManifest.xml:17:1-22:12
MERGED from [:androidx.lifecycle.lifecycle-livedata-2.0.0:] C:\Users\Vladimir\.gradle\caches\transforms-2\files-2.1\e5cc430acef2febe878ce46e5ba9bc29\AndroidManifest.xml:17:1-22:12
MERGED from [:androidx.lifecycle.lifecycle-livedata-core-2.0.0:] C:\Users\Vladimir\.gradle\caches\transforms-2\files-2.1\a6a695c4d9877c3a6f44316db8d126f3\AndroidManifest.xml:17:1-22:12
MERGED from [:androidx.lifecycle.lifecycle-runtime-2.0.0:] C:\Users\Vladimir\.gradle\caches\transforms-2\files-2.1\db933c67df2c75336c898d9054b5d564\AndroidManifest.xml:17:1-22:12
MERGED from [:androidx.lifecycle.lifecycle-viewmodel-2.0.0:] C:\Users\Vladimir\.gradle\caches\transforms-2\files-2.1\e7797f155d5d5cbf76f5ea2f6e1f1361\AndroidManifest.xml:17:1-22:12
MERGED from [:androidx.loader.loader-1.0.0:] C:\Users\Vladimir\.gradle\caches\transforms-2\files-2.1\fa206c2ea560c540b5b2999d7e645f25\AndroidManifest.xml:17:1-22:12
MERGED from [:androidx.localbroadcastmanager.localbroadcastmanager-1.0.0:] C:\Users\Vladimir\.gradle\caches\transforms-2\files-2.1\2656ffbe1c278a5e8b4b093327aabe5c\AndroidManifest.xml:17:1-22:12
MERGED from [:androidx.media.media-1.0.0:] C:\Users\Vladimir\.gradle\caches\transforms-2\files-2.1\d6f5076e171382b2210ea51851c0ec50\AndroidManifest.xml:17:1-22:12
MERGED from [:androidx.print.print-1.0.0:] C:\Users\Vladimir\.gradle\caches\transforms-2\files-2.1\2a0d24790fb5164ea892f7cccc22c65c\AndroidManifest.xml:17:1-22:12
MERGED from [:androidx.slidingpanelayout.slidingpanelayout-1.0.0:] C:\Users\Vladimir\.gradle\caches\transforms-2\files-2.1\38831cbb26e0a5c43153c74cc0217c46\AndroidManifest.xml:17:1-22:12
MERGED from [:androidx.swiperefreshlayout.swiperefreshlayout-1.0.0:] C:\Users\Vladimir\.gradle\caches\transforms-2\files-2.1\b585d634a79dacf52445fe4ebaf05202\AndroidManifest.xml:17:1-22:12
MERGED from [:androidx.vectordrawable.vectordrawable-1.0.0:] C:\Users\Vladimir\.gradle\caches\transforms-2\files-2.1\a217bc06c9cc8e48c86b15205a27ea99\AndroidManifest.xml:17:1-22:12
MERGED from [:androidx.vectordrawable.vectordrawable-animated-1.0.0:] C:\Users\Vladimir\.gradle\caches\transforms-2\files-2.1\fc7af30816cd60091e9681310ee0b0f7\AndroidManifest.xml:17:1-22:12
MERGED from [:androidx.versionedparcelable.versionedparcelable-1.0.0:] C:\Users\Vladimir\.gradle\caches\transforms-2\files-2.1\906a64cc399e8ce74de79d4607d1cd9a\AndroidManifest.xml:17:1-25:12
MERGED from [:androidx.viewpager.viewpager-1.0.0:] C:\Users\Vladimir\.gradle\caches\transforms-2\files-2.1\5d1a91d377ba6f95ea63062864b09656\AndroidManifest.xml:17:1-22:12
MERGED from [:com.facebook.android.facebook-applinks-5.13.0:] C:\Users\Vladimir\.gradle\caches\transforms-2\files-2.1\2cb872789fac30b7a812472276ff9efd\AndroidManifest.xml:21:1-31:12
MERGED from [:com.facebook.android.facebook-common-5.13.0:] C:\Users\Vladimir\.gradle\caches\transforms-2\files-2.1\95c9b13842cd229f932aa387224312a7\AndroidManifest.xml:21:1-37:12
MERGED from [:com.facebook.android.facebook-core-5.13.0:] C:\Users\Vladimir\.gradle\caches\transforms-2\files-2.1\262c78efb4b61a57e42a101081f3c3a2\AndroidManifest.xml:21:1-45:12
MERGED from [:com.facebook.android.facebook-login-5.13.0:] C:\Users\Vladimir\.gradle\caches\transforms-2\files-2.1\8a93b9b943159d1d0bf2ac07fb252566\AndroidManifest.xml:21:1-31:12
MERGED from [:com.facebook.android.facebook-share-5.13.0:] C:\Users\Vladimir\.gradle\caches\transforms-2\files-2.1\1a9b60e072a9f6c03cbae6b99fcbd216\AndroidManifest.xml:21:1-31:12
MERGED from [:com.google.android.gms.play-services-ads-identifier-15.0.1:] C:\Users\Vladimir\.gradle\caches\transforms-2\files-2.1\de6b6d4fd2b5e9f758bcb514d649c01e\AndroidManifest.xml:17:1-24:12
MERGED from [:com.google.android.gms.play-services-base-15.0.1:] C:\Users\Vladimir\.gradle\caches\transforms-2\files-2.1\cab55f22b36c067da29fb4c461c3bc58\AndroidManifest.xml:17:1-29:12
MERGED from [:com.google.android.gms.play-services-basement-15.0.1:] C:\Users\Vladimir\.gradle\caches\transforms-2\files-2.1\72d81660c0361cee5ff80d03d2426493\AndroidManifest.xml:17:1-28:12
MERGED from [:com.google.android.gms.play-services-tasks-15.0.1:] C:\Users\Vladimir\.gradle\caches\transforms-2\files-2.1\45cfd61c9b37baa2c63cf62e0b122d1e\AndroidManifest.xml:2:1-9:12
MERGED from [:common:] C:\Users\Vladimir\.gradle\caches\transforms-2\files-2.1\efdce4fd0344120093512d310aa3826e\AndroidManifest.xml:2:1-12:12
MERGED from [:facebook-android-wrapper-7.18.1:] C:\Users\Vladimir\.gradle\caches\transforms-2\files-2.1\f9e6162780bebe6372784159b88d09a2\AndroidManifest.xml:21:1-30:12
MERGED from [:GoogleAIDL:] C:\Users\Vladimir\.gradle\caches\transforms-2\files-2.1\51bf2c3e55102d0cb52e562f20596583\AndroidManifest.xml:2:1-12:12
MERGED from [:googlemobileads-unity:] C:\Users\Vladimir\.gradle\caches\transforms-2\files-2.1\c0c672ffa7bae236b5ed8717dec6da26\AndroidManifest.xml:7:1-18:12
MERGED from [:GooglePlay:] C:\Users\Vladimir\.gradle\caches\transforms-2\files-2.1\e4cd16f0316d1c406c9cfbc1212ee3c4\AndroidManifest.xml:2:1-40:12
MERGED from [:ChartboostSDK] G:\UnityProjects\theracoonstory\GradleBuild\The Raccoon Story\ChartboostSDK\build\intermediates\library_manifest\debug\AndroidManifest.xml:2:1-38:12
MERGED from [:GoogleMobileAdsPlugin] G:\UnityProjects\theracoonstory\GradleBuild\The Raccoon Story\GoogleMobileAdsPlugin\build\intermediates\library_manifest\debug\AndroidManifest.xml:2:1-25:12
INJECTED from G:\UnityProjects\theracoonstory\GradleBuild\The Raccoon Story\src\main\AndroidManifest.xml:2:1-39:12
INJECTED from G:\UnityProjects\theracoonstory\GradleBuild\The Raccoon Story\src\main\AndroidManifest.xml:2:1-39:12
INJECTED from G:\UnityProjects\theracoonstory\GradleBuild\The Raccoon Story\src\main\AndroidManifest.xml:2:1-39:12
	package
		ADDED from G:\UnityProjects\theracoonstory\GradleBuild\The Raccoon Story\src\main\AndroidManifest.xml:2:117-155
		INJECTED from G:\UnityProjects\theracoonstory\GradleBuild\The Raccoon Story\src\main\AndroidManifest.xml
		INJECTED from G:\UnityProjects\theracoonstory\GradleBuild\The Raccoon Story\src\main\AndroidManifest.xml
	android:versionName
		ADDED from G:\UnityProjects\theracoonstory\GradleBuild\The Raccoon Story\src\main\AndroidManifest.xml:2:228-253
		INJECTED from G:\UnityProjects\theracoonstory\GradleBuild\The Raccoon Story\src\main\AndroidManifest.xml
		INJECTED from G:\UnityProjects\theracoonstory\GradleBuild\The Raccoon Story\src\main\AndroidManifest.xml
	xmlns:tools
		ADDED from G:\UnityProjects\theracoonstory\GradleBuild\The Raccoon Story\src\main\AndroidManifest.xml:2:70-116
	xmlns:android
		ADDED from G:\UnityProjects\theracoonstory\GradleBuild\The Raccoon Story\src\main\AndroidManifest.xml:2:11-69
	android:versionCode
		ADDED from G:\UnityProjects\theracoonstory\GradleBuild\The Raccoon Story\src\main\AndroidManifest.xml:2:204-227
		INJECTED from G:\UnityProjects\theracoonstory\GradleBuild\The Raccoon Story\src\main\AndroidManifest.xml
		INJECTED from G:\UnityProjects\theracoonstory\GradleBuild\The Raccoon Story\src\main\AndroidManifest.xml
	android:installLocation
		ADDED from G:\UnityProjects\theracoonstory\GradleBuild\The Raccoon Story\src\main\AndroidManifest.xml:2:254-294
	android:theme
		ADDED from G:\UnityProjects\theracoonstory\GradleBuild\The Raccoon Story\src\main\AndroidManifest.xml:2:156-203
supports-screens
ADDED from G:\UnityProjects\theracoonstory\GradleBuild\The Raccoon Story\src\main\AndroidManifest.xml:3:3-163
	android:largeScreens
		ADDED from G:\UnityProjects\theracoonstory\GradleBuild\The Raccoon Story\src\main\AndroidManifest.xml:3:78-105
	android:smallScreens
		ADDED from G:\UnityProjects\theracoonstory\GradleBuild\The Raccoon Story\src\main\AndroidManifest.xml:3:21-48
	android:normalScreens
		ADDED from G:\UnityProjects\theracoonstory\GradleBuild\The Raccoon Story\src\main\AndroidManifest.xml:3:49-77
	android:xlargeScreens
		ADDED from G:\UnityProjects\theracoonstory\GradleBuild\The Raccoon Story\src\main\AndroidManifest.xml:3:106-134
	android:anyDensity
		ADDED from G:\UnityProjects\theracoonstory\GradleBuild\The Raccoon Story\src\main\AndroidManifest.xml:3:135-160
application
ADDED from G:\UnityProjects\theracoonstory\GradleBuild\The Raccoon Story\src\main\AndroidManifest.xml:4:3-30:17
MERGED from [:androidx.core.core-1.0.0:] C:\Users\Vladimir\.gradle\caches\transforms-2\files-2.1\929fb6195623d5a396325c19f7418b58\AndroidManifest.xml:22:5-89
MERGED from [:androidx.core.core-1.0.0:] C:\Users\Vladimir\.gradle\caches\transforms-2\files-2.1\929fb6195623d5a396325c19f7418b58\AndroidManifest.xml:22:5-89
MERGED from [:androidx.versionedparcelable.versionedparcelable-1.0.0:] C:\Users\Vladimir\.gradle\caches\transforms-2\files-2.1\906a64cc399e8ce74de79d4607d1cd9a\AndroidManifest.xml:22:5-23:19
MERGED from [:androidx.versionedparcelable.versionedparcelable-1.0.0:] C:\Users\Vladimir\.gradle\caches\transforms-2\files-2.1\906a64cc399e8ce74de79d4607d1cd9a\AndroidManifest.xml:22:5-23:19
MERGED from [:com.facebook.android.facebook-applinks-5.13.0:] C:\Users\Vladimir\.gradle\caches\transforms-2\files-2.1\2cb872789fac30b7a812472276ff9efd\AndroidManifest.xml:28:5-29:19
MERGED from [:com.facebook.android.facebook-applinks-5.13.0:] C:\Users\Vladimir\.gradle\caches\transforms-2\files-2.1\2cb872789fac30b7a812472276ff9efd\AndroidManifest.xml:28:5-29:19
MERGED from [:com.facebook.android.facebook-common-5.13.0:] C:\Users\Vladimir\.gradle\caches\transforms-2\files-2.1\95c9b13842cd229f932aa387224312a7\AndroidManifest.xml:28:5-35:19
MERGED from [:com.facebook.android.facebook-common-5.13.0:] C:\Users\Vladimir\.gradle\caches\transforms-2\files-2.1\95c9b13842cd229f932aa387224312a7\AndroidManifest.xml:28:5-35:19
MERGED from [:com.facebook.android.facebook-core-5.13.0:] C:\Users\Vladimir\.gradle\caches\transforms-2\files-2.1\262c78efb4b61a57e42a101081f3c3a2\AndroidManifest.xml:23:3-44:17
MERGED from [:com.facebook.android.facebook-core-5.13.0:] C:\Users\Vladimir\.gradle\caches\transforms-2\files-2.1\262c78efb4b61a57e42a101081f3c3a2\AndroidManifest.xml:23:3-44:17
MERGED from [:com.facebook.android.facebook-login-5.13.0:] C:\Users\Vladimir\.gradle\caches\transforms-2\files-2.1\8a93b9b943159d1d0bf2ac07fb252566\AndroidManifest.xml:28:5-29:19
MERGED from [:com.facebook.android.facebook-login-5.13.0:] C:\Users\Vladimir\.gradle\caches\transforms-2\files-2.1\8a93b9b943159d1d0bf2ac07fb252566\AndroidManifest.xml:28:5-29:19
MERGED from [:com.facebook.android.facebook-share-5.13.0:] C:\Users\Vladimir\.gradle\caches\transforms-2\files-2.1\1a9b60e072a9f6c03cbae6b99fcbd216\AndroidManifest.xml:28:5-29:19
MERGED from [:com.facebook.android.facebook-share-5.13.0:] C:\Users\Vladimir\.gradle\caches\transforms-2\files-2.1\1a9b60e072a9f6c03cbae6b99fcbd216\AndroidManifest.xml:28:5-29:19
MERGED from [:com.google.android.gms.play-services-ads-identifier-15.0.1:] C:\Users\Vladimir\.gradle\caches\transforms-2\files-2.1\de6b6d4fd2b5e9f758bcb514d649c01e\AndroidManifest.xml:22:5-20
MERGED from [:com.google.android.gms.play-services-ads-identifier-15.0.1:] C:\Users\Vladimir\.gradle\caches\transforms-2\files-2.1\de6b6d4fd2b5e9f758bcb514d649c01e\AndroidManifest.xml:22:5-20
MERGED from [:com.google.android.gms.play-services-base-15.0.1:] C:\Users\Vladimir\.gradle\caches\transforms-2\files-2.1\cab55f22b36c067da29fb4c461c3bc58\AndroidManifest.xml:22:5-27:19
MERGED from [:com.google.android.gms.play-services-base-15.0.1:] C:\Users\Vladimir\.gradle\caches\transforms-2\files-2.1\cab55f22b36c067da29fb4c461c3bc58\AndroidManifest.xml:22:5-27:19
MERGED from [:com.google.android.gms.play-services-basement-15.0.1:] C:\Users\Vladimir\.gradle\caches\transforms-2\files-2.1\72d81660c0361cee5ff80d03d2426493\AndroidManifest.xml:22:5-26:19
MERGED from [:com.google.android.gms.play-services-basement-15.0.1:] C:\Users\Vladimir\.gradle\caches\transforms-2\files-2.1\72d81660c0361cee5ff80d03d2426493\AndroidManifest.xml:22:5-26:19
MERGED from [:com.google.android.gms.play-services-tasks-15.0.1:] C:\Users\Vladimir\.gradle\caches\transforms-2\files-2.1\45cfd61c9b37baa2c63cf62e0b122d1e\AndroidManifest.xml:7:5-20
MERGED from [:com.google.android.gms.play-services-tasks-15.0.1:] C:\Users\Vladimir\.gradle\caches\transforms-2\files-2.1\45cfd61c9b37baa2c63cf62e0b122d1e\AndroidManifest.xml:7:5-20
MERGED from [:common:] C:\Users\Vladimir\.gradle\caches\transforms-2\files-2.1\efdce4fd0344120093512d310aa3826e\AndroidManifest.xml:9:5-10:19
MERGED from [:common:] C:\Users\Vladimir\.gradle\caches\transforms-2\files-2.1\efdce4fd0344120093512d310aa3826e\AndroidManifest.xml:9:5-10:19
MERGED from [:facebook-android-wrapper-7.18.1:] C:\Users\Vladimir\.gradle\caches\transforms-2\files-2.1\f9e6162780bebe6372784159b88d09a2\AndroidManifest.xml:28:5-20
MERGED from [:facebook-android-wrapper-7.18.1:] C:\Users\Vladimir\.gradle\caches\transforms-2\files-2.1\f9e6162780bebe6372784159b88d09a2\AndroidManifest.xml:28:5-20
MERGED from [:GoogleAIDL:] C:\Users\Vladimir\.gradle\caches\transforms-2\files-2.1\51bf2c3e55102d0cb52e562f20596583\AndroidManifest.xml:9:5-10:19
MERGED from [:GoogleAIDL:] C:\Users\Vladimir\.gradle\caches\transforms-2\files-2.1\51bf2c3e55102d0cb52e562f20596583\AndroidManifest.xml:9:5-10:19
MERGED from [:GooglePlay:] C:\Users\Vladimir\.gradle\caches\transforms-2\files-2.1\e4cd16f0316d1c406c9cfbc1212ee3c4\AndroidManifest.xml:22:5-38:19
MERGED from [:GooglePlay:] C:\Users\Vladimir\.gradle\caches\transforms-2\files-2.1\e4cd16f0316d1c406c9cfbc1212ee3c4\AndroidManifest.xml:22:5-38:19
MERGED from [:ChartboostSDK] G:\UnityProjects\theracoonstory\GradleBuild\The Raccoon Story\ChartboostSDK\build\intermediates\library_manifest\debug\AndroidManifest.xml:29:5-36:19
MERGED from [:ChartboostSDK] G:\UnityProjects\theracoonstory\GradleBuild\The Raccoon Story\ChartboostSDK\build\intermediates\library_manifest\debug\AndroidManifest.xml:29:5-36:19
MERGED from [:GoogleMobileAdsPlugin] G:\UnityProjects\theracoonstory\GradleBuild\The Raccoon Story\GoogleMobileAdsPlugin\build\intermediates\library_manifest\debug\AndroidManifest.xml:9:5-23:19
MERGED from [:GoogleMobileAdsPlugin] G:\UnityProjects\theracoonstory\GradleBuild\The Raccoon Story\GoogleMobileAdsPlugin\build\intermediates\library_manifest\debug\AndroidManifest.xml:9:5-23:19
	android:supportsRtl
		ADDED from [:com.facebook.android.facebook-applinks-5.13.0:] C:\Users\Vladimir\.gradle\caches\transforms-2\files-2.1\2cb872789fac30b7a812472276ff9efd\AndroidManifest.xml:28:18-44
	android:appComponentFactory
		ADDED from [:androidx.core.core-1.0.0:] C:\Users\Vladimir\.gradle\caches\transforms-2\files-2.1\929fb6195623d5a396325c19f7418b58\AndroidManifest.xml:22:18-86
	android:label
		ADDED from G:\UnityProjects\theracoonstory\GradleBuild\The Raccoon Story\src\main\AndroidManifest.xml:4:16-48
	android:allowBackup
		ADDED from [:GooglePlay:] C:\Users\Vladimir\.gradle\caches\transforms-2\files-2.1\e4cd16f0316d1c406c9cfbc1212ee3c4\AndroidManifest.xml:22:18-44
	android:icon
		ADDED from G:\UnityProjects\theracoonstory\GradleBuild\The Raccoon Story\src\main\AndroidManifest.xml:4:138-169
	android:banner
		ADDED from G:\UnityProjects\theracoonstory\GradleBuild\The Raccoon Story\src\main\AndroidManifest.xml:4:100-137
	tools:replace
		ADDED from G:\UnityProjects\theracoonstory\GradleBuild\The Raccoon Story\src\main\AndroidManifest.xml:4:49-77
	android:isGame
		ADDED from G:\UnityProjects\theracoonstory\GradleBuild\The Raccoon Story\src\main\AndroidManifest.xml:4:78-99
activity#com.gamebizz.theraccoonstory.UnityPlayerActivity
ADDED from G:\UnityProjects\theracoonstory\GradleBuild\The Raccoon Story\src\main\AndroidManifest.xml:5:5-14:16
	android:screenOrientation
		ADDED from G:\UnityProjects\theracoonstory\GradleBuild\The Raccoon Story\src\main\AndroidManifest.xml:5:48-84
	android:label
		ADDED from G:\UnityProjects\theracoonstory\GradleBuild\The Raccoon Story\src\main\AndroidManifest.xml:5:15-47
	android:launchMode
		ADDED from G:\UnityProjects\theracoonstory\GradleBuild\The Raccoon Story\src\main\AndroidManifest.xml:5:85-116
	android:hardwareAccelerated
		ADDED from G:\UnityProjects\theracoonstory\GradleBuild\The Raccoon Story\src\main\AndroidManifest.xml:5:299-334
	android:configChanges
		ADDED from G:\UnityProjects\theracoonstory\GradleBuild\The Raccoon Story\src\main\AndroidManifest.xml:5:117-298
	android:name
		ADDED from G:\UnityProjects\theracoonstory\GradleBuild\The Raccoon Story\src\main\AndroidManifest.xml:5:335-398
intent-filter#action:name:android.intent.action.MAIN+category:name:android.intent.category.LAUNCHER+category:name:android.intent.category.LEANBACK_LAUNCHER
ADDED from G:\UnityProjects\theracoonstory\GradleBuild\The Raccoon Story\src\main\AndroidManifest.xml:6:7-10:23
action#android.intent.action.MAIN
ADDED from G:\UnityProjects\theracoonstory\GradleBuild\The Raccoon Story\src\main\AndroidManifest.xml:7:9-61
	android:name
		ADDED from G:\UnityProjects\theracoonstory\GradleBuild\The Raccoon Story\src\main\AndroidManifest.xml:7:17-58
category#android.intent.category.LAUNCHER
ADDED from G:\UnityProjects\theracoonstory\GradleBuild\The Raccoon Story\src\main\AndroidManifest.xml:8:9-69
	android:name
		ADDED from G:\UnityProjects\theracoonstory\GradleBuild\The Raccoon Story\src\main\AndroidManifest.xml:8:19-66
category#android.intent.category.LEANBACK_LAUNCHER
ADDED from G:\UnityProjects\theracoonstory\GradleBuild\The Raccoon Story\src\main\AndroidManifest.xml:9:9-78
	android:name
		ADDED from G:\UnityProjects\theracoonstory\GradleBuild\The Raccoon Story\src\main\AndroidManifest.xml:9:19-75
meta-data#unityplayer.UnityActivity
ADDED from G:\UnityProjects\theracoonstory\GradleBuild\The Raccoon Story\src\main\AndroidManifest.xml:11:7-82
	android:value
		ADDED from G:\UnityProjects\theracoonstory\GradleBuild\The Raccoon Story\src\main\AndroidManifest.xml:11:59-79
	android:name
		ADDED from G:\UnityProjects\theracoonstory\GradleBuild\The Raccoon Story\src\main\AndroidManifest.xml:11:18-58
meta-data#unityplayer.ForwardNativeEventsToDalvik
ADDED from G:\UnityProjects\theracoonstory\GradleBuild\The Raccoon Story\src\main\AndroidManifest.xml:12:7-96
	android:value
		ADDED from G:\UnityProjects\theracoonstory\GradleBuild\The Raccoon Story\src\main\AndroidManifest.xml:12:73-93
	android:name
		ADDED from G:\UnityProjects\theracoonstory\GradleBuild\The Raccoon Story\src\main\AndroidManifest.xml:12:18-72
meta-data#android.notch_support
ADDED from G:\UnityProjects\theracoonstory\GradleBuild\The Raccoon Story\src\main\AndroidManifest.xml:13:7-78
	android:value
		ADDED from G:\UnityProjects\theracoonstory\GradleBuild\The Raccoon Story\src\main\AndroidManifest.xml:13:55-75
	android:name
		ADDED from G:\UnityProjects\theracoonstory\GradleBuild\The Raccoon Story\src\main\AndroidManifest.xml:13:18-54
activity#com.facebook.unity.FBUnityLoginActivity
ADDED from G:\UnityProjects\theracoonstory\GradleBuild\The Raccoon Story\src\main\AndroidManifest.xml:15:5-301
	android:configChanges
		ADDED from G:\UnityProjects\theracoonstory\GradleBuild\The Raccoon Story\src\main\AndroidManifest.xml:15:70-227
	android:theme
		ADDED from G:\UnityProjects\theracoonstory\GradleBuild\The Raccoon Story\src\main\AndroidManifest.xml:15:228-298
	android:name
		ADDED from G:\UnityProjects\theracoonstory\GradleBuild\The Raccoon Story\src\main\AndroidManifest.xml:15:15-69
activity#com.facebook.unity.FBUnityDialogsActivity
ADDED from G:\UnityProjects\theracoonstory\GradleBuild\The Raccoon Story\src\main\AndroidManifest.xml:16:5-303
	android:configChanges
		ADDED from G:\UnityProjects\theracoonstory\GradleBuild\The Raccoon Story\src\main\AndroidManifest.xml:16:72-229
	android:theme
		ADDED from G:\UnityProjects\theracoonstory\GradleBuild\The Raccoon Story\src\main\AndroidManifest.xml:16:230-300
	android:name
		ADDED from G:\UnityProjects\theracoonstory\GradleBuild\The Raccoon Story\src\main\AndroidManifest.xml:16:15-71
activity#com.facebook.unity.FBUnityAppLinkActivity
ADDED from G:\UnityProjects\theracoonstory\GradleBuild\The Raccoon Story\src\main\AndroidManifest.xml:17:5-98
	android:exported
		ADDED from G:\UnityProjects\theracoonstory\GradleBuild\The Raccoon Story\src\main\AndroidManifest.xml:17:72-95
	android:name
		ADDED from G:\UnityProjects\theracoonstory\GradleBuild\The Raccoon Story\src\main\AndroidManifest.xml:17:15-71
activity#com.facebook.unity.FBUnityDeepLinkingActivity
ADDED from G:\UnityProjects\theracoonstory\GradleBuild\The Raccoon Story\src\main\AndroidManifest.xml:18:5-102
	android:exported
		ADDED from G:\UnityProjects\theracoonstory\GradleBuild\The Raccoon Story\src\main\AndroidManifest.xml:18:76-99
	android:name
		ADDED from G:\UnityProjects\theracoonstory\GradleBuild\The Raccoon Story\src\main\AndroidManifest.xml:18:15-75
activity#com.facebook.unity.FBUnityGameRequestActivity
ADDED from G:\UnityProjects\theracoonstory\GradleBuild\The Raccoon Story\src\main\AndroidManifest.xml:19:5-78
	android:name
		ADDED from G:\UnityProjects\theracoonstory\GradleBuild\The Raccoon Story\src\main\AndroidManifest.xml:19:15-75
activity#com.facebook.unity.FBUnityCreateGameGroupActivity
ADDED from G:\UnityProjects\theracoonstory\GradleBuild\The Raccoon Story\src\main\AndroidManifest.xml:20:5-82
	android:name
		ADDED from G:\UnityProjects\theracoonstory\GradleBuild\The Raccoon Story\src\main\AndroidManifest.xml:20:15-79
activity#com.facebook.unity.FBUnityJoinGameGroupActivity
ADDED from G:\UnityProjects\theracoonstory\GradleBuild\The Raccoon Story\src\main\AndroidManifest.xml:21:5-80
	android:name
		ADDED from G:\UnityProjects\theracoonstory\GradleBuild\The Raccoon Story\src\main\AndroidManifest.xml:21:15-77
meta-data#com.facebook.sdk.ApplicationId
ADDED from G:\UnityProjects\theracoonstory\GradleBuild\The Raccoon Story\src\main\AndroidManifest.xml:22:5-98
	android:value
		ADDED from G:\UnityProjects\theracoonstory\GradleBuild\The Raccoon Story\src\main\AndroidManifest.xml:22:62-95
	android:name
		ADDED from G:\UnityProjects\theracoonstory\GradleBuild\The Raccoon Story\src\main\AndroidManifest.xml:22:16-61
meta-data#com.facebook.sdk.AutoLogAppEventsEnabled
ADDED from G:\UnityProjects\theracoonstory\GradleBuild\The Raccoon Story\src\main\AndroidManifest.xml:23:5-95
	android:value
		ADDED from G:\UnityProjects\theracoonstory\GradleBuild\The Raccoon Story\src\main\AndroidManifest.xml:23:72-92
	android:name
		ADDED from G:\UnityProjects\theracoonstory\GradleBuild\The Raccoon Story\src\main\AndroidManifest.xml:23:16-71
meta-data#com.facebook.sdk.AdvertiserIDCollectionEnabled
ADDED from G:\UnityProjects\theracoonstory\GradleBuild\The Raccoon Story\src\main\AndroidManifest.xml:24:5-101
	android:value
		ADDED from G:\UnityProjects\theracoonstory\GradleBuild\The Raccoon Story\src\main\AndroidManifest.xml:24:78-98
	android:name
		ADDED from G:\UnityProjects\theracoonstory\GradleBuild\The Raccoon Story\src\main\AndroidManifest.xml:24:16-77
provider#com.facebook.FacebookContentProvider
ADDED from G:\UnityProjects\theracoonstory\GradleBuild\The Raccoon Story\src\main\AndroidManifest.xml:25:5-171
	android:authorities
		ADDED from G:\UnityProjects\theracoonstory\GradleBuild\The Raccoon Story\src\main\AndroidManifest.xml:25:67-144
	android:exported
		ADDED from G:\UnityProjects\theracoonstory\GradleBuild\The Raccoon Story\src\main\AndroidManifest.xml:25:145-168
	android:name
		ADDED from G:\UnityProjects\theracoonstory\GradleBuild\The Raccoon Story\src\main\AndroidManifest.xml:25:15-66
meta-data#unity.build-id
ADDED from G:\UnityProjects\theracoonstory\GradleBuild\The Raccoon Story\src\main\AndroidManifest.xml:26:5-101
	android:value
		ADDED from G:\UnityProjects\theracoonstory\GradleBuild\The Raccoon Story\src\main\AndroidManifest.xml:26:46-98
	android:name
		ADDED from G:\UnityProjects\theracoonstory\GradleBuild\The Raccoon Story\src\main\AndroidManifest.xml:26:16-45
meta-data#unity.splash-mode
ADDED from G:\UnityProjects\theracoonstory\GradleBuild\The Raccoon Story\src\main\AndroidManifest.xml:27:5-69
	android:value
		ADDED from G:\UnityProjects\theracoonstory\GradleBuild\The Raccoon Story\src\main\AndroidManifest.xml:27:49-66
	android:name
		ADDED from G:\UnityProjects\theracoonstory\GradleBuild\The Raccoon Story\src\main\AndroidManifest.xml:27:16-48
meta-data#unity.splash-enable
ADDED from G:\UnityProjects\theracoonstory\GradleBuild\The Raccoon Story\src\main\AndroidManifest.xml:28:5-74
	android:value
		ADDED from G:\UnityProjects\theracoonstory\GradleBuild\The Raccoon Story\src\main\AndroidManifest.xml:28:51-71
	android:name
		ADDED from G:\UnityProjects\theracoonstory\GradleBuild\The Raccoon Story\src\main\AndroidManifest.xml:28:16-50
meta-data#notch.config
ADDED from G:\UnityProjects\theracoonstory\GradleBuild\The Raccoon Story\src\main\AndroidManifest.xml:29:5-81
	android:value
		ADDED from G:\UnityProjects\theracoonstory\GradleBuild\The Raccoon Story\src\main\AndroidManifest.xml:29:44-78
	android:name
		ADDED from G:\UnityProjects\theracoonstory\GradleBuild\The Raccoon Story\src\main\AndroidManifest.xml:29:16-43
meta-data#com.google.android.gms.version
ADDED from G:\UnityProjects\theracoonstory\GradleBuild\The Raccoon Story\src\main\AndroidManifest.xml:32:3-116
	android:value
		ADDED from G:\UnityProjects\theracoonstory\GradleBuild\The Raccoon Story\src\main\AndroidManifest.xml:32:60-113
	android:name
		ADDED from G:\UnityProjects\theracoonstory\GradleBuild\The Raccoon Story\src\main\AndroidManifest.xml:32:14-59
uses-feature#0x00020000
ADDED from G:\UnityProjects\theracoonstory\GradleBuild\The Raccoon Story\src\main\AndroidManifest.xml:33:3-52
	android:glEsVersion
		ADDED from G:\UnityProjects\theracoonstory\GradleBuild\The Raccoon Story\src\main\AndroidManifest.xml:33:17-49
uses-permission#android.permission.INTERNET
ADDED from G:\UnityProjects\theracoonstory\GradleBuild\The Raccoon Story\src\main\AndroidManifest.xml:34:3-65
MERGED from [:googlemobileads-unity:] C:\Users\Vladimir\.gradle\caches\transforms-2\files-2.1\c0c672ffa7bae236b5ed8717dec6da26\AndroidManifest.xml:16:5-67
MERGED from [:googlemobileads-unity:] C:\Users\Vladimir\.gradle\caches\transforms-2\files-2.1\c0c672ffa7bae236b5ed8717dec6da26\AndroidManifest.xml:16:5-67
MERGED from [:GooglePlay:] C:\Users\Vladimir\.gradle\caches\transforms-2\files-2.1\e4cd16f0316d1c406c9cfbc1212ee3c4\AndroidManifest.xml:11:5-67
MERGED from [:GooglePlay:] C:\Users\Vladimir\.gradle\caches\transforms-2\files-2.1\e4cd16f0316d1c406c9cfbc1212ee3c4\AndroidManifest.xml:11:5-67
MERGED from [:ChartboostSDK] G:\UnityProjects\theracoonstory\GradleBuild\The Raccoon Story\ChartboostSDK\build\intermediates\library_manifest\debug\AndroidManifest.xml:9:5-67
MERGED from [:ChartboostSDK] G:\UnityProjects\theracoonstory\GradleBuild\The Raccoon Story\ChartboostSDK\build\intermediates\library_manifest\debug\AndroidManifest.xml:9:5-67
	android:name
		ADDED from G:\UnityProjects\theracoonstory\GradleBuild\The Raccoon Story\src\main\AndroidManifest.xml:34:20-62
uses-permission#android.permission.CHANGE_WIFI_MULTICAST_STATE
ADDED from G:\UnityProjects\theracoonstory\GradleBuild\The Raccoon Story\src\main\AndroidManifest.xml:35:3-84
	android:name
		ADDED from G:\UnityProjects\theracoonstory\GradleBuild\The Raccoon Story\src\main\AndroidManifest.xml:35:20-81
uses-feature#android.hardware.touchscreen
ADDED from G:\UnityProjects\theracoonstory\GradleBuild\The Raccoon Story\src\main\AndroidManifest.xml:36:3-88
	android:required
		ADDED from G:\UnityProjects\theracoonstory\GradleBuild\The Raccoon Story\src\main\AndroidManifest.xml:36:61-85
	android:name
		ADDED from G:\UnityProjects\theracoonstory\GradleBuild\The Raccoon Story\src\main\AndroidManifest.xml:36:17-60
uses-feature#android.hardware.touchscreen.multitouch
ADDED from G:\UnityProjects\theracoonstory\GradleBuild\The Raccoon Story\src\main\AndroidManifest.xml:37:3-99
	android:required
		ADDED from G:\UnityProjects\theracoonstory\GradleBuild\The Raccoon Story\src\main\AndroidManifest.xml:37:72-96
	android:name
		ADDED from G:\UnityProjects\theracoonstory\GradleBuild\The Raccoon Story\src\main\AndroidManifest.xml:37:17-71
uses-feature#android.hardware.touchscreen.multitouch.distinct
ADDED from G:\UnityProjects\theracoonstory\GradleBuild\The Raccoon Story\src\main\AndroidManifest.xml:38:3-108
	android:required
		ADDED from G:\UnityProjects\theracoonstory\GradleBuild\The Raccoon Story\src\main\AndroidManifest.xml:38:81-105
	android:name
		ADDED from G:\UnityProjects\theracoonstory\GradleBuild\The Raccoon Story\src\main\AndroidManifest.xml:38:17-80
uses-sdk
INJECTED from G:\UnityProjects\theracoonstory\GradleBuild\The Raccoon Story\src\main\AndroidManifest.xml reason: use-sdk injection requested
INJECTED from G:\UnityProjects\theracoonstory\GradleBuild\The Raccoon Story\src\main\AndroidManifest.xml
INJECTED from G:\UnityProjects\theracoonstory\GradleBuild\The Raccoon Story\src\main\AndroidManifest.xml
MERGED from [:androidx.appcompat.appcompat-1.0.0:] C:\Users\Vladimir\.gradle\caches\transforms-2\files-2.1\ad5ee043503300e453e57ce9dec032d9\AndroidManifest.xml:20:5-44
MERGED from [:androidx.appcompat.appcompat-1.0.0:] C:\Users\Vladimir\.gradle\caches\transforms-2\files-2.1\ad5ee043503300e453e57ce9dec032d9\AndroidManifest.xml:20:5-44
MERGED from [:androidx.arch.core.core-runtime-2.0.0:] C:\Users\Vladimir\.gradle\caches\transforms-2\files-2.1\cf7b86ce64a9391c03754096dbce4ca2\AndroidManifest.xml:20:5-44
MERGED from [:androidx.arch.core.core-runtime-2.0.0:] C:\Users\Vladimir\.gradle\caches\transforms-2\files-2.1\cf7b86ce64a9391c03754096dbce4ca2\AndroidManifest.xml:20:5-44
MERGED from [:androidx.asynclayoutinflater.asynclayoutinflater-1.0.0:] C:\Users\Vladimir\.gradle\caches\transforms-2\files-2.1\c2a908f9da118ff15eabd7fa93635953\AndroidManifest.xml:20:5-44
MERGED from [:androidx.asynclayoutinflater.asynclayoutinflater-1.0.0:] C:\Users\Vladimir\.gradle\caches\transforms-2\files-2.1\c2a908f9da118ff15eabd7fa93635953\AndroidManifest.xml:20:5-44
MERGED from [:androidx.browser.browser-1.0.0:] C:\Users\Vladimir\.gradle\caches\transforms-2\files-2.1\ce03a53788ae80d945944bc4006f38f8\AndroidManifest.xml:20:5-44
MERGED from [:androidx.browser.browser-1.0.0:] C:\Users\Vladimir\.gradle\caches\transforms-2\files-2.1\ce03a53788ae80d945944bc4006f38f8\AndroidManifest.xml:20:5-44
MERGED from [:androidx.cardview.cardview-1.0.0:] C:\Users\Vladimir\.gradle\caches\transforms-2\files-2.1\9ede0030730888bd3dcd5f846951310c\AndroidManifest.xml:20:5-44
MERGED from [:androidx.cardview.cardview-1.0.0:] C:\Users\Vladimir\.gradle\caches\transforms-2\files-2.1\9ede0030730888bd3dcd5f846951310c\AndroidManifest.xml:20:5-44
MERGED from [:androidx.coordinatorlayout.coordinatorlayout-1.0.0:] C:\Users\Vladimir\.gradle\caches\transforms-2\files-2.1\0987ec7c06cfdb6ef8d1a2089c1baa9b\AndroidManifest.xml:20:5-44
MERGED from [:androidx.coordinatorlayout.coordinatorlayout-1.0.0:] C:\Users\Vladimir\.gradle\caches\transforms-2\files-2.1\0987ec7c06cfdb6ef8d1a2089c1baa9b\AndroidManifest.xml:20:5-44
MERGED from [:androidx.core.core-1.0.0:] C:\Users\Vladimir\.gradle\caches\transforms-2\files-2.1\929fb6195623d5a396325c19f7418b58\AndroidManifest.xml:20:5-44
MERGED from [:androidx.core.core-1.0.0:] C:\Users\Vladimir\.gradle\caches\transforms-2\files-2.1\929fb6195623d5a396325c19f7418b58\AndroidManifest.xml:20:5-44
MERGED from [:androidx.cursoradapter.cursoradapter-1.0.0:] C:\Users\Vladimir\.gradle\caches\transforms-2\files-2.1\d99dab980c7fccbf837ef900c4c8ba28\AndroidManifest.xml:20:5-44
MERGED from [:androidx.cursoradapter.cursoradapter-1.0.0:] C:\Users\Vladimir\.gradle\caches\transforms-2\files-2.1\d99dab980c7fccbf837ef900c4c8ba28\AndroidManifest.xml:20:5-44
MERGED from [:androidx.customview.customview-1.0.0:] C:\Users\Vladimir\.gradle\caches\transforms-2\files-2.1\9d41fc4fef2a1f219bfcae67044740d2\AndroidManifest.xml:20:5-44
MERGED from [:androidx.customview.customview-1.0.0:] C:\Users\Vladimir\.gradle\caches\transforms-2\files-2.1\9d41fc4fef2a1f219bfcae67044740d2\AndroidManifest.xml:20:5-44
MERGED from [:androidx.documentfile.documentfile-1.0.0:] C:\Users\Vladimir\.gradle\caches\transforms-2\files-2.1\7f7e84f517de07abfa09ac2d07921ff4\AndroidManifest.xml:20:5-44
MERGED from [:androidx.documentfile.documentfile-1.0.0:] C:\Users\Vladimir\.gradle\caches\transforms-2\files-2.1\7f7e84f517de07abfa09ac2d07921ff4\AndroidManifest.xml:20:5-44
MERGED from [:androidx.drawerlayout.drawerlayout-1.0.0:] C:\Users\Vladimir\.gradle\caches\transforms-2\files-2.1\8f44a04704714ec8cf04e6586b4df66d\AndroidManifest.xml:20:5-44
MERGED from [:androidx.drawerlayout.drawerlayout-1.0.0:] C:\Users\Vladimir\.gradle\caches\transforms-2\files-2.1\8f44a04704714ec8cf04e6586b4df66d\AndroidManifest.xml:20:5-44
MERGED from [:androidx.fragment.fragment-1.0.0:] C:\Users\Vladimir\.gradle\caches\transforms-2\files-2.1\6a60cfd7f8ca0c86abd49a4c81df5e2a\AndroidManifest.xml:20:5-44
MERGED from [:androidx.fragment.fragment-1.0.0:] C:\Users\Vladimir\.gradle\caches\transforms-2\files-2.1\6a60cfd7f8ca0c86abd49a4c81df5e2a\AndroidManifest.xml:20:5-44
MERGED from [:androidx.interpolator.interpolator-1.0.0:] C:\Users\Vladimir\.gradle\caches\transforms-2\files-2.1\f407728e726e4767687ff1fa08ee329f\AndroidManifest.xml:20:5-44
MERGED from [:androidx.interpolator.interpolator-1.0.0:] C:\Users\Vladimir\.gradle\caches\transforms-2\files-2.1\f407728e726e4767687ff1fa08ee329f\AndroidManifest.xml:20:5-44
MERGED from [:androidx.legacy.legacy-support-core-ui-1.0.0:] C:\Users\Vladimir\.gradle\caches\transforms-2\files-2.1\aa05b8ba233e590d0582c1a37c732e21\AndroidManifest.xml:20:5-44
MERGED from [:androidx.legacy.legacy-support-core-ui-1.0.0:] C:\Users\Vladimir\.gradle\caches\transforms-2\files-2.1\aa05b8ba233e590d0582c1a37c732e21\AndroidManifest.xml:20:5-44
MERGED from [:androidx.legacy.legacy-support-core-utils-1.0.0:] C:\Users\Vladimir\.gradle\caches\transforms-2\files-2.1\ebe46714c77de90d63f17240a2b45280\AndroidManifest.xml:20:5-44
MERGED from [:androidx.legacy.legacy-support-core-utils-1.0.0:] C:\Users\Vladimir\.gradle\caches\transforms-2\files-2.1\ebe46714c77de90d63f17240a2b45280\AndroidManifest.xml:20:5-44
MERGED from [:androidx.legacy.legacy-support-v4-1.0.0:] C:\Users\Vladimir\.gradle\caches\transforms-2\files-2.1\5c0417b9ac20d03762ef08a626e97e8e\AndroidManifest.xml:20:5-44
MERGED from [:androidx.legacy.legacy-support-v4-1.0.0:] C:\Users\Vladimir\.gradle\caches\transforms-2\files-2.1\5c0417b9ac20d03762ef08a626e97e8e\AndroidManifest.xml:20:5-44
MERGED from [:androidx.lifecycle.lifecycle-livedata-2.0.0:] C:\Users\Vladimir\.gradle\caches\transforms-2\files-2.1\e5cc430acef2febe878ce46e5ba9bc29\AndroidManifest.xml:20:5-44
MERGED from [:androidx.lifecycle.lifecycle-livedata-2.0.0:] C:\Users\Vladimir\.gradle\caches\transforms-2\files-2.1\e5cc430acef2febe878ce46e5ba9bc29\AndroidManifest.xml:20:5-44
MERGED from [:androidx.lifecycle.lifecycle-livedata-core-2.0.0:] C:\Users\Vladimir\.gradle\caches\transforms-2\files-2.1\a6a695c4d9877c3a6f44316db8d126f3\AndroidManifest.xml:20:5-44
MERGED from [:androidx.lifecycle.lifecycle-livedata-core-2.0.0:] C:\Users\Vladimir\.gradle\caches\transforms-2\files-2.1\a6a695c4d9877c3a6f44316db8d126f3\AndroidManifest.xml:20:5-44
MERGED from [:androidx.lifecycle.lifecycle-runtime-2.0.0:] C:\Users\Vladimir\.gradle\caches\transforms-2\files-2.1\db933c67df2c75336c898d9054b5d564\AndroidManifest.xml:20:5-44
MERGED from [:androidx.lifecycle.lifecycle-runtime-2.0.0:] C:\Users\Vladimir\.gradle\caches\transforms-2\files-2.1\db933c67df2c75336c898d9054b5d564\AndroidManifest.xml:20:5-44
MERGED from [:androidx.lifecycle.lifecycle-viewmodel-2.0.0:] C:\Users\Vladimir\.gradle\caches\transforms-2\files-2.1\e7797f155d5d5cbf76f5ea2f6e1f1361\AndroidManifest.xml:20:5-44
MERGED from [:androidx.lifecycle.lifecycle-viewmodel-2.0.0:] C:\Users\Vladimir\.gradle\caches\transforms-2\files-2.1\e7797f155d5d5cbf76f5ea2f6e1f1361\AndroidManifest.xml:20:5-44
MERGED from [:androidx.loader.loader-1.0.0:] C:\Users\Vladimir\.gradle\caches\transforms-2\files-2.1\fa206c2ea560c540b5b2999d7e645f25\AndroidManifest.xml:20:5-44
MERGED from [:androidx.loader.loader-1.0.0:] C:\Users\Vladimir\.gradle\caches\transforms-2\files-2.1\fa206c2ea560c540b5b2999d7e645f25\AndroidManifest.xml:20:5-44
MERGED from [:androidx.localbroadcastmanager.localbroadcastmanager-1.0.0:] C:\Users\Vladimir\.gradle\caches\transforms-2\files-2.1\2656ffbe1c278a5e8b4b093327aabe5c\AndroidManifest.xml:20:5-44
MERGED from [:androidx.localbroadcastmanager.localbroadcastmanager-1.0.0:] C:\Users\Vladimir\.gradle\caches\transforms-2\files-2.1\2656ffbe1c278a5e8b4b093327aabe5c\AndroidManifest.xml:20:5-44
MERGED from [:androidx.media.media-1.0.0:] C:\Users\Vladimir\.gradle\caches\transforms-2\files-2.1\d6f5076e171382b2210ea51851c0ec50\AndroidManifest.xml:20:5-44
MERGED from [:androidx.media.media-1.0.0:] C:\Users\Vladimir\.gradle\caches\transforms-2\files-2.1\d6f5076e171382b2210ea51851c0ec50\AndroidManifest.xml:20:5-44
MERGED from [:androidx.print.print-1.0.0:] C:\Users\Vladimir\.gradle\caches\transforms-2\files-2.1\2a0d24790fb5164ea892f7cccc22c65c\AndroidManifest.xml:20:5-44
MERGED from [:androidx.print.print-1.0.0:] C:\Users\Vladimir\.gradle\caches\transforms-2\files-2.1\2a0d24790fb5164ea892f7cccc22c65c\AndroidManifest.xml:20:5-44
MERGED from [:androidx.slidingpanelayout.slidingpanelayout-1.0.0:] C:\Users\Vladimir\.gradle\caches\transforms-2\files-2.1\38831cbb26e0a5c43153c74cc0217c46\AndroidManifest.xml:20:5-44
MERGED from [:androidx.slidingpanelayout.slidingpanelayout-1.0.0:] C:\Users\Vladimir\.gradle\caches\transforms-2\files-2.1\38831cbb26e0a5c43153c74cc0217c46\AndroidManifest.xml:20:5-44
MERGED from [:androidx.swiperefreshlayout.swiperefreshlayout-1.0.0:] C:\Users\Vladimir\.gradle\caches\transforms-2\files-2.1\b585d634a79dacf52445fe4ebaf05202\AndroidManifest.xml:20:5-44
MERGED from [:androidx.swiperefreshlayout.swiperefreshlayout-1.0.0:] C:\Users\Vladimir\.gradle\caches\transforms-2\files-2.1\b585d634a79dacf52445fe4ebaf05202\AndroidManifest.xml:20:5-44
MERGED from [:androidx.vectordrawable.vectordrawable-1.0.0:] C:\Users\Vladimir\.gradle\caches\transforms-2\files-2.1\a217bc06c9cc8e48c86b15205a27ea99\AndroidManifest.xml:20:5-44
MERGED from [:androidx.vectordrawable.vectordrawable-1.0.0:] C:\Users\Vladimir\.gradle\caches\transforms-2\files-2.1\a217bc06c9cc8e48c86b15205a27ea99\AndroidManifest.xml:20:5-44
MERGED from [:androidx.vectordrawable.vectordrawable-animated-1.0.0:] C:\Users\Vladimir\.gradle\caches\transforms-2\files-2.1\fc7af30816cd60091e9681310ee0b0f7\AndroidManifest.xml:20:5-44
MERGED from [:androidx.vectordrawable.vectordrawable-animated-1.0.0:] C:\Users\Vladimir\.gradle\caches\transforms-2\files-2.1\fc7af30816cd60091e9681310ee0b0f7\AndroidManifest.xml:20:5-44
MERGED from [:androidx.versionedparcelable.versionedparcelable-1.0.0:] C:\Users\Vladimir\.gradle\caches\transforms-2\files-2.1\906a64cc399e8ce74de79d4607d1cd9a\AndroidManifest.xml:20:5-44
MERGED from [:androidx.versionedparcelable.versionedparcelable-1.0.0:] C:\Users\Vladimir\.gradle\caches\transforms-2\files-2.1\906a64cc399e8ce74de79d4607d1cd9a\AndroidManifest.xml:20:5-44
MERGED from [:androidx.viewpager.viewpager-1.0.0:] C:\Users\Vladimir\.gradle\caches\transforms-2\files-2.1\5d1a91d377ba6f95ea63062864b09656\AndroidManifest.xml:20:5-44
MERGED from [:androidx.viewpager.viewpager-1.0.0:] C:\Users\Vladimir\.gradle\caches\transforms-2\files-2.1\5d1a91d377ba6f95ea63062864b09656\AndroidManifest.xml:20:5-44
MERGED from [:com.facebook.android.facebook-applinks-5.13.0:] C:\Users\Vladimir\.gradle\caches\transforms-2\files-2.1\2cb872789fac30b7a812472276ff9efd\AndroidManifest.xml:24:5-26:41
MERGED from [:com.facebook.android.facebook-applinks-5.13.0:] C:\Users\Vladimir\.gradle\caches\transforms-2\files-2.1\2cb872789fac30b7a812472276ff9efd\AndroidManifest.xml:24:5-26:41
MERGED from [:com.facebook.android.facebook-common-5.13.0:] C:\Users\Vladimir\.gradle\caches\transforms-2\files-2.1\95c9b13842cd229f932aa387224312a7\AndroidManifest.xml:24:5-26:41
MERGED from [:com.facebook.android.facebook-common-5.13.0:] C:\Users\Vladimir\.gradle\caches\transforms-2\files-2.1\95c9b13842cd229f932aa387224312a7\AndroidManifest.xml:24:5-26:41
MERGED from [:com.facebook.android.facebook-core-5.13.0:] C:\Users\Vladimir\.gradle\caches\transforms-2\files-2.1\262c78efb4b61a57e42a101081f3c3a2\AndroidManifest.xml:22:3-72
MERGED from [:com.facebook.android.facebook-core-5.13.0:] C:\Users\Vladimir\.gradle\caches\transforms-2\files-2.1\262c78efb4b61a57e42a101081f3c3a2\AndroidManifest.xml:22:3-72
MERGED from [:com.facebook.android.facebook-login-5.13.0:] C:\Users\Vladimir\.gradle\caches\transforms-2\files-2.1\8a93b9b943159d1d0bf2ac07fb252566\AndroidManifest.xml:24:5-26:41
MERGED from [:com.facebook.android.facebook-login-5.13.0:] C:\Users\Vladimir\.gradle\caches\transforms-2\files-2.1\8a93b9b943159d1d0bf2ac07fb252566\AndroidManifest.xml:24:5-26:41
MERGED from [:com.facebook.android.facebook-share-5.13.0:] C:\Users\Vladimir\.gradle\caches\transforms-2\files-2.1\1a9b60e072a9f6c03cbae6b99fcbd216\AndroidManifest.xml:24:5-26:41
MERGED from [:com.facebook.android.facebook-share-5.13.0:] C:\Users\Vladimir\.gradle\caches\transforms-2\files-2.1\1a9b60e072a9f6c03cbae6b99fcbd216\AndroidManifest.xml:24:5-26:41
MERGED from [:com.google.android.gms.play-services-ads-identifier-15.0.1:] C:\Users\Vladimir\.gradle\caches\transforms-2\files-2.1\de6b6d4fd2b5e9f758bcb514d649c01e\AndroidManifest.xml:20:5-44
MERGED from [:com.google.android.gms.play-services-ads-identifier-15.0.1:] C:\Users\Vladimir\.gradle\caches\transforms-2\files-2.1\de6b6d4fd2b5e9f758bcb514d649c01e\AndroidManifest.xml:20:5-44
MERGED from [:com.google.android.gms.play-services-base-15.0.1:] C:\Users\Vladimir\.gradle\caches\transforms-2\files-2.1\cab55f22b36c067da29fb4c461c3bc58\AndroidManifest.xml:20:5-44
MERGED from [:com.google.android.gms.play-services-base-15.0.1:] C:\Users\Vladimir\.gradle\caches\transforms-2\files-2.1\cab55f22b36c067da29fb4c461c3bc58\AndroidManifest.xml:20:5-44
MERGED from [:com.google.android.gms.play-services-basement-15.0.1:] C:\Users\Vladimir\.gradle\caches\transforms-2\files-2.1\72d81660c0361cee5ff80d03d2426493\AndroidManifest.xml:20:5-44
MERGED from [:com.google.android.gms.play-services-basement-15.0.1:] C:\Users\Vladimir\.gradle\caches\transforms-2\files-2.1\72d81660c0361cee5ff80d03d2426493\AndroidManifest.xml:20:5-44
MERGED from [:com.google.android.gms.play-services-tasks-15.0.1:] C:\Users\Vladimir\.gradle\caches\transforms-2\files-2.1\45cfd61c9b37baa2c63cf62e0b122d1e\AndroidManifest.xml:5:5-44
MERGED from [:com.google.android.gms.play-services-tasks-15.0.1:] C:\Users\Vladimir\.gradle\caches\transforms-2\files-2.1\45cfd61c9b37baa2c63cf62e0b122d1e\AndroidManifest.xml:5:5-44
MERGED from [:common:] C:\Users\Vladimir\.gradle\caches\transforms-2\files-2.1\efdce4fd0344120093512d310aa3826e\AndroidManifest.xml:7:5-43
MERGED from [:common:] C:\Users\Vladimir\.gradle\caches\transforms-2\files-2.1\efdce4fd0344120093512d310aa3826e\AndroidManifest.xml:7:5-43
MERGED from [:facebook-android-wrapper-7.18.1:] C:\Users\Vladimir\.gradle\caches\transforms-2\files-2.1\f9e6162780bebe6372784159b88d09a2\AndroidManifest.xml:24:5-26:41
MERGED from [:facebook-android-wrapper-7.18.1:] C:\Users\Vladimir\.gradle\caches\transforms-2\files-2.1\f9e6162780bebe6372784159b88d09a2\AndroidManifest.xml:24:5-26:41
MERGED from [:GoogleAIDL:] C:\Users\Vladimir\.gradle\caches\transforms-2\files-2.1\51bf2c3e55102d0cb52e562f20596583\AndroidManifest.xml:7:5-43
MERGED from [:GoogleAIDL:] C:\Users\Vladimir\.gradle\caches\transforms-2\files-2.1\51bf2c3e55102d0cb52e562f20596583\AndroidManifest.xml:7:5-43
MERGED from [:googlemobileads-unity:] C:\Users\Vladimir\.gradle\caches\transforms-2\files-2.1\c0c672ffa7bae236b5ed8717dec6da26\AndroidManifest.xml:12:5-14:41
MERGED from [:googlemobileads-unity:] C:\Users\Vladimir\.gradle\caches\transforms-2\files-2.1\c0c672ffa7bae236b5ed8717dec6da26\AndroidManifest.xml:12:5-14:41
MERGED from [:GooglePlay:] C:\Users\Vladimir\.gradle\caches\transforms-2\files-2.1\e4cd16f0316d1c406c9cfbc1212ee3c4\AndroidManifest.xml:7:5-9:41
MERGED from [:GooglePlay:] C:\Users\Vladimir\.gradle\caches\transforms-2\files-2.1\e4cd16f0316d1c406c9cfbc1212ee3c4\AndroidManifest.xml:7:5-9:41
MERGED from [:ChartboostSDK] G:\UnityProjects\theracoonstory\GradleBuild\The Raccoon Story\ChartboostSDK\build\intermediates\library_manifest\debug\AndroidManifest.xml:7:5-47
MERGED from [:ChartboostSDK] G:\UnityProjects\theracoonstory\GradleBuild\The Raccoon Story\ChartboostSDK\build\intermediates\library_manifest\debug\AndroidManifest.xml:7:5-47
MERGED from [:GoogleMobileAdsPlugin] G:\UnityProjects\theracoonstory\GradleBuild\The Raccoon Story\GoogleMobileAdsPlugin\build\intermediates\library_manifest\debug\AndroidManifest.xml:7:5-47
MERGED from [:GoogleMobileAdsPlugin] G:\UnityProjects\theracoonstory\GradleBuild\The Raccoon Story\GoogleMobileAdsPlugin\build\intermediates\library_manifest\debug\AndroidManifest.xml:7:5-47
INJECTED from G:\UnityProjects\theracoonstory\GradleBuild\The Raccoon Story\src\main\AndroidManifest.xml
INJECTED from G:\UnityProjects\theracoonstory\GradleBuild\The Raccoon Story\src\main\AndroidManifest.xml
	android:targetSdkVersion
		INJECTED from G:\UnityProjects\theracoonstory\GradleBuild\The Raccoon Story\src\main\AndroidManifest.xml
		ADDED from G:\UnityProjects\theracoonstory\GradleBuild\The Raccoon Story\src\main\AndroidManifest.xml
		INJECTED from G:\UnityProjects\theracoonstory\GradleBuild\The Raccoon Story\src\main\AndroidManifest.xml
	android:minSdkVersion
		INJECTED from G:\UnityProjects\theracoonstory\GradleBuild\The Raccoon Story\src\main\AndroidManifest.xml
		ADDED from G:\UnityProjects\theracoonstory\GradleBuild\The Raccoon Story\src\main\AndroidManifest.xml
		MERGED from G:\UnityProjects\theracoonstory\GradleBuild\The Raccoon Story\src\main\AndroidManifest.xml
		MERGED from G:\UnityProjects\theracoonstory\GradleBuild\The Raccoon Story\src\main\AndroidManifest.xml
		INJECTED from G:\UnityProjects\theracoonstory\GradleBuild\The Raccoon Story\src\main\AndroidManifest.xml
activity#com.facebook.FacebookActivity
ADDED from [:com.facebook.android.facebook-common-5.13.0:] C:\Users\Vladimir\.gradle\caches\transforms-2\files-2.1\95c9b13842cd229f932aa387224312a7\AndroidManifest.xml:29:9-32:66
	android:configChanges
		ADDED from [:com.facebook.android.facebook-common-5.13.0:] C:\Users\Vladimir\.gradle\caches\transforms-2\files-2.1\95c9b13842cd229f932aa387224312a7\AndroidManifest.xml:31:13-96
	android:theme
		ADDED from [:com.facebook.android.facebook-common-5.13.0:] C:\Users\Vladimir\.gradle\caches\transforms-2\files-2.1\95c9b13842cd229f932aa387224312a7\AndroidManifest.xml:32:13-63
	android:name
		ADDED from [:com.facebook.android.facebook-common-5.13.0:] C:\Users\Vladimir\.gradle\caches\transforms-2\files-2.1\95c9b13842cd229f932aa387224312a7\AndroidManifest.xml:30:13-57
activity#com.facebook.CustomTabMainActivity
ADDED from [:com.facebook.android.facebook-common-5.13.0:] C:\Users\Vladimir\.gradle\caches\transforms-2\files-2.1\95c9b13842cd229f932aa387224312a7\AndroidManifest.xml:33:9-71
	android:name
		ADDED from [:com.facebook.android.facebook-common-5.13.0:] C:\Users\Vladimir\.gradle\caches\transforms-2\files-2.1\95c9b13842cd229f932aa387224312a7\AndroidManifest.xml:33:19-68
activity#com.facebook.CustomTabActivity
ADDED from [:com.facebook.android.facebook-common-5.13.0:] C:\Users\Vladimir\.gradle\caches\transforms-2\files-2.1\95c9b13842cd229f932aa387224312a7\AndroidManifest.xml:34:9-67
	android:name
		ADDED from [:com.facebook.android.facebook-common-5.13.0:] C:\Users\Vladimir\.gradle\caches\transforms-2\files-2.1\95c9b13842cd229f932aa387224312a7\AndroidManifest.xml:34:19-64
provider#com.facebook.internal.FacebookInitProvider
ADDED from [:com.facebook.android.facebook-core-5.13.0:] C:\Users\Vladimir\.gradle\caches\transforms-2\files-2.1\262c78efb4b61a57e42a101081f3c3a2\AndroidManifest.xml:33:5-172
	android:authorities
		ADDED from [:com.facebook.android.facebook-core-5.13.0:] C:\Users\Vladimir\.gradle\caches\transforms-2\files-2.1\262c78efb4b61a57e42a101081f3c3a2\AndroidManifest.xml:33:73-144
	android:exported
		ADDED from [:com.facebook.android.facebook-core-5.13.0:] C:\Users\Vladimir\.gradle\caches\transforms-2\files-2.1\262c78efb4b61a57e42a101081f3c3a2\AndroidManifest.xml:33:145-169
	android:name
		ADDED from [:com.facebook.android.facebook-core-5.13.0:] C:\Users\Vladimir\.gradle\caches\transforms-2\files-2.1\262c78efb4b61a57e42a101081f3c3a2\AndroidManifest.xml:33:15-72
receiver#com.facebook.CurrentAccessTokenExpirationBroadcastReceiver
ADDED from [:com.facebook.android.facebook-core-5.13.0:] C:\Users\Vladimir\.gradle\caches\transforms-2\files-2.1\262c78efb4b61a57e42a101081f3c3a2\AndroidManifest.xml:34:5-38:16
	android:exported
		ADDED from [:com.facebook.android.facebook-core-5.13.0:] C:\Users\Vladimir\.gradle\caches\transforms-2\files-2.1\262c78efb4b61a57e42a101081f3c3a2\AndroidManifest.xml:34:89-113
	android:name
		ADDED from [:com.facebook.android.facebook-core-5.13.0:] C:\Users\Vladimir\.gradle\caches\transforms-2\files-2.1\262c78efb4b61a57e42a101081f3c3a2\AndroidManifest.xml:34:15-88
intent-filter#action:name:com.facebook.sdk.ACTION_CURRENT_ACCESS_TOKEN_CHANGED
ADDED from [:com.facebook.android.facebook-core-5.13.0:] C:\Users\Vladimir\.gradle\caches\transforms-2\files-2.1\262c78efb4b61a57e42a101081f3c3a2\AndroidManifest.xml:35:7-37:23
action#com.facebook.sdk.ACTION_CURRENT_ACCESS_TOKEN_CHANGED
ADDED from [:com.facebook.android.facebook-core-5.13.0:] C:\Users\Vladimir\.gradle\caches\transforms-2\files-2.1\262c78efb4b61a57e42a101081f3c3a2\AndroidManifest.xml:36:9-87
	android:name
		ADDED from [:com.facebook.android.facebook-core-5.13.0:] C:\Users\Vladimir\.gradle\caches\transforms-2\files-2.1\262c78efb4b61a57e42a101081f3c3a2\AndroidManifest.xml:36:17-84
receiver#com.facebook.CampaignTrackingReceiver
ADDED from [:com.facebook.android.facebook-core-5.13.0:] C:\Users\Vladimir\.gradle\caches\transforms-2\files-2.1\262c78efb4b61a57e42a101081f3c3a2\AndroidManifest.xml:39:5-43:16
	android:exported
		ADDED from [:com.facebook.android.facebook-core-5.13.0:] C:\Users\Vladimir\.gradle\caches\transforms-2\files-2.1\262c78efb4b61a57e42a101081f3c3a2\AndroidManifest.xml:39:68-91
	android:permission
		ADDED from [:com.facebook.android.facebook-core-5.13.0:] C:\Users\Vladimir\.gradle\caches\transforms-2\files-2.1\262c78efb4b61a57e42a101081f3c3a2\AndroidManifest.xml:39:92-148
	android:name
		ADDED from [:com.facebook.android.facebook-core-5.13.0:] C:\Users\Vladimir\.gradle\caches\transforms-2\files-2.1\262c78efb4b61a57e42a101081f3c3a2\AndroidManifest.xml:39:15-67
intent-filter#action:name:com.android.vending.INSTALL_REFERRER
ADDED from [:com.facebook.android.facebook-core-5.13.0:] C:\Users\Vladimir\.gradle\caches\transforms-2\files-2.1\262c78efb4b61a57e42a101081f3c3a2\AndroidManifest.xml:40:7-42:23
action#com.android.vending.INSTALL_REFERRER
ADDED from [:com.facebook.android.facebook-core-5.13.0:] C:\Users\Vladimir\.gradle\caches\transforms-2\files-2.1\262c78efb4b61a57e42a101081f3c3a2\AndroidManifest.xml:41:9-71
	android:name
		ADDED from [:com.facebook.android.facebook-core-5.13.0:] C:\Users\Vladimir\.gradle\caches\transforms-2\files-2.1\262c78efb4b61a57e42a101081f3c3a2\AndroidManifest.xml:41:17-68
activity#com.google.android.gms.common.api.GoogleApiActivity
ADDED from [:com.google.android.gms.play-services-base-15.0.1:] C:\Users\Vladimir\.gradle\caches\transforms-2\files-2.1\cab55f22b36c067da29fb4c461c3bc58\AndroidManifest.xml:23:9-26:75
	android:exported
		ADDED from [:com.google.android.gms.play-services-base-15.0.1:] C:\Users\Vladimir\.gradle\caches\transforms-2\files-2.1\cab55f22b36c067da29fb4c461c3bc58\AndroidManifest.xml:25:13-37
	android:theme
		ADDED from [:com.google.android.gms.play-services-base-15.0.1:] C:\Users\Vladimir\.gradle\caches\transforms-2\files-2.1\cab55f22b36c067da29fb4c461c3bc58\AndroidManifest.xml:26:13-72
	android:name
		ADDED from [:com.google.android.gms.play-services-base-15.0.1:] C:\Users\Vladimir\.gradle\caches\transforms-2\files-2.1\cab55f22b36c067da29fb4c461c3bc58\AndroidManifest.xml:24:13-79
uses-permission#com.android.vending.BILLING
ADDED from [:GooglePlay:] C:\Users\Vladimir\.gradle\caches\transforms-2\files-2.1\e4cd16f0316d1c406c9cfbc1212ee3c4\AndroidManifest.xml:12:5-67
	android:name
		ADDED from [:GooglePlay:] C:\Users\Vladimir\.gradle\caches\transforms-2\files-2.1\e4cd16f0316d1c406c9cfbc1212ee3c4\AndroidManifest.xml:12:22-64
uses-feature#android.software.vr.mode
ADDED from [:GooglePlay:] C:\Users\Vladimir\.gradle\caches\transforms-2\files-2.1\e4cd16f0316d1c406c9cfbc1212ee3c4\AndroidManifest.xml:14:5-16:36
	android:required
		ADDED from [:GooglePlay:] C:\Users\Vladimir\.gradle\caches\transforms-2\files-2.1\e4cd16f0316d1c406c9cfbc1212ee3c4\AndroidManifest.xml:16:9-33
	android:name
		ADDED from [:GooglePlay:] C:\Users\Vladimir\.gradle\caches\transforms-2\files-2.1\e4cd16f0316d1c406c9cfbc1212ee3c4\AndroidManifest.xml:15:9-48
uses-feature#android.software.vr.high_performance
ADDED from [:GooglePlay:] C:\Users\Vladimir\.gradle\caches\transforms-2\files-2.1\e4cd16f0316d1c406c9cfbc1212ee3c4\AndroidManifest.xml:18:5-20:36
	android:required
		ADDED from [:GooglePlay:] C:\Users\Vladimir\.gradle\caches\transforms-2\files-2.1\e4cd16f0316d1c406c9cfbc1212ee3c4\AndroidManifest.xml:20:9-33
	android:name
		ADDED from [:GooglePlay:] C:\Users\Vladimir\.gradle\caches\transforms-2\files-2.1\e4cd16f0316d1c406c9cfbc1212ee3c4\AndroidManifest.xml:19:9-60
activity#com.unity.purchasing.googleplay.PurchaseActivity
ADDED from [:GooglePlay:] C:\Users\Vladimir\.gradle\caches\transforms-2\files-2.1\e4cd16f0316d1c406c9cfbc1212ee3c4\AndroidManifest.xml:23:9-26:86
	android:configChanges
		ADDED from [:GooglePlay:] C:\Users\Vladimir\.gradle\caches\transforms-2\files-2.1\e4cd16f0316d1c406c9cfbc1212ee3c4\AndroidManifest.xml:25:13-170
	android:theme
		ADDED from [:GooglePlay:] C:\Users\Vladimir\.gradle\caches\transforms-2\files-2.1\e4cd16f0316d1c406c9cfbc1212ee3c4\AndroidManifest.xml:26:13-83
	android:name
		ADDED from [:GooglePlay:] C:\Users\Vladimir\.gradle\caches\transforms-2\files-2.1\e4cd16f0316d1c406c9cfbc1212ee3c4\AndroidManifest.xml:24:13-76
activity#com.unity.purchasing.googleplay.VRPurchaseActivity
ADDED from [:GooglePlay:] C:\Users\Vladimir\.gradle\caches\transforms-2\files-2.1\e4cd16f0316d1c406c9cfbc1212ee3c4\AndroidManifest.xml:27:9-37:20
	android:enableVrMode
		ADDED from [:GooglePlay:] C:\Users\Vladimir\.gradle\caches\transforms-2\files-2.1\e4cd16f0316d1c406c9cfbc1212ee3c4\AndroidManifest.xml:30:13-106
	android:configChanges
		ADDED from [:GooglePlay:] C:\Users\Vladimir\.gradle\caches\transforms-2\files-2.1\e4cd16f0316d1c406c9cfbc1212ee3c4\AndroidManifest.xml:29:13-170
	android:theme
		ADDED from [:GooglePlay:] C:\Users\Vladimir\.gradle\caches\transforms-2\files-2.1\e4cd16f0316d1c406c9cfbc1212ee3c4\AndroidManifest.xml:31:13-51
	android:name
		ADDED from [:GooglePlay:] C:\Users\Vladimir\.gradle\caches\transforms-2\files-2.1\e4cd16f0316d1c406c9cfbc1212ee3c4\AndroidManifest.xml:28:13-78
intent-filter#action:name:com.google.vr.vrcore.ACTION_NONE+category:name:com.google.intent.category.DAYDREAM
ADDED from [:GooglePlay:] C:\Users\Vladimir\.gradle\caches\transforms-2\files-2.1\e4cd16f0316d1c406c9cfbc1212ee3c4\AndroidManifest.xml:32:13-36:29
action#com.google.vr.vrcore.ACTION_NONE
ADDED from [:GooglePlay:] C:\Users\Vladimir\.gradle\caches\transforms-2\files-2.1\e4cd16f0316d1c406c9cfbc1212ee3c4\AndroidManifest.xml:33:17-75
	android:name
		ADDED from [:GooglePlay:] C:\Users\Vladimir\.gradle\caches\transforms-2\files-2.1\e4cd16f0316d1c406c9cfbc1212ee3c4\AndroidManifest.xml:33:25-72
category#com.google.intent.category.DAYDREAM
ADDED from [:GooglePlay:] C:\Users\Vladimir\.gradle\caches\transforms-2\files-2.1\e4cd16f0316d1c406c9cfbc1212ee3c4\AndroidManifest.xml:35:17-80
	android:name
		ADDED from [:GooglePlay:] C:\Users\Vladimir\.gradle\caches\transforms-2\files-2.1\e4cd16f0316d1c406c9cfbc1212ee3c4\AndroidManifest.xml:35:27-77
uses-permission#android.permission.ACCESS_NETWORK_STATE
ADDED from [:ChartboostSDK] G:\UnityProjects\theracoonstory\GradleBuild\The Raccoon Story\ChartboostSDK\build\intermediates\library_manifest\debug\AndroidManifest.xml:10:5-79
	android:name
		ADDED from [:ChartboostSDK] G:\UnityProjects\theracoonstory\GradleBuild\The Raccoon Story\ChartboostSDK\build\intermediates\library_manifest\debug\AndroidManifest.xml:10:22-76
uses-permission#android.permission.ACCESS_WIFI_STATE
ADDED from [:ChartboostSDK] G:\UnityProjects\theracoonstory\GradleBuild\The Raccoon Story\ChartboostSDK\build\intermediates\library_manifest\debug\AndroidManifest.xml:17:5-76
	android:name
		ADDED from [:ChartboostSDK] G:\UnityProjects\theracoonstory\GradleBuild\The Raccoon Story\ChartboostSDK\build\intermediates\library_manifest\debug\AndroidManifest.xml:17:22-73
uses-permission#android.permission.WRITE_EXTERNAL_STORAGE
ADDED from [:ChartboostSDK] G:\UnityProjects\theracoonstory\GradleBuild\The Raccoon Story\ChartboostSDK\build\intermediates\library_manifest\debug\AndroidManifest.xml:24:5-81
	android:name
		ADDED from [:ChartboostSDK] G:\UnityProjects\theracoonstory\GradleBuild\The Raccoon Story\ChartboostSDK\build\intermediates\library_manifest\debug\AndroidManifest.xml:24:22-78
uses-permission#android.permission.READ_PHONE_STATE
ADDED from [:ChartboostSDK] G:\UnityProjects\theracoonstory\GradleBuild\The Raccoon Story\ChartboostSDK\build\intermediates\library_manifest\debug\AndroidManifest.xml:27:5-75
	android:name
		ADDED from [:ChartboostSDK] G:\UnityProjects\theracoonstory\GradleBuild\The Raccoon Story\ChartboostSDK\build\intermediates\library_manifest\debug\AndroidManifest.xml:27:22-72
activity#com.chartboost.sdk.CBImpressionActivity
ADDED from [:ChartboostSDK] G:\UnityProjects\theracoonstory\GradleBuild\The Raccoon Story\ChartboostSDK\build\intermediates\library_manifest\debug\AndroidManifest.xml:30:9-35:86
	android:excludeFromRecents
		ADDED from [:ChartboostSDK] G:\UnityProjects\theracoonstory\GradleBuild\The Raccoon Story\ChartboostSDK\build\intermediates\library_manifest\debug\AndroidManifest.xml:33:13-46
	android:hardwareAccelerated
		ADDED from [:ChartboostSDK] G:\UnityProjects\theracoonstory\GradleBuild\The Raccoon Story\ChartboostSDK\build\intermediates\library_manifest\debug\AndroidManifest.xml:34:13-47
	android:configChanges
		ADDED from [:ChartboostSDK] G:\UnityProjects\theracoonstory\GradleBuild\The Raccoon Story\ChartboostSDK\build\intermediates\library_manifest\debug\AndroidManifest.xml:32:13-74
	android:theme
		ADDED from [:ChartboostSDK] G:\UnityProjects\theracoonstory\GradleBuild\The Raccoon Story\ChartboostSDK\build\intermediates\library_manifest\debug\AndroidManifest.xml:35:13-83
	android:name
		ADDED from [:ChartboostSDK] G:\UnityProjects\theracoonstory\GradleBuild\The Raccoon Story\ChartboostSDK\build\intermediates\library_manifest\debug\AndroidManifest.xml:31:13-67
uses-permission#android.permission.READ_EXTERNAL_STORAGE
IMPLIED from G:\UnityProjects\theracoonstory\GradleBuild\The Raccoon Story\src\main\AndroidManifest.xml:2:1-39:12 reason: com.chartboost.sdk.unity requested WRITE_EXTERNAL_STORAGE
uses-library#org.apache.http.legacy
ADDED from [:GoogleMobileAdsPlugin] G:\UnityProjects\theracoonstory\GradleBuild\The Raccoon Story\GoogleMobileAdsPlugin\build\intermediates\library_manifest\debug\AndroidManifest.xml:10:9-12:40
	android:required
		ADDED from [:GoogleMobileAdsPlugin] G:\UnityProjects\theracoonstory\GradleBuild\The Raccoon Story\GoogleMobileAdsPlugin\build\intermediates\library_manifest\debug\AndroidManifest.xml:12:13-37
	android:name
		ADDED from [:GoogleMobileAdsPlugin] G:\UnityProjects\theracoonstory\GradleBuild\The Raccoon Story\GoogleMobileAdsPlugin\build\intermediates\library_manifest\debug\AndroidManifest.xml:11:13-50
meta-data#com.google.android.gms.ads.AD_MANAGER_APP
ADDED from [:GoogleMobileAdsPlugin] G:\UnityProjects\theracoonstory\GradleBuild\The Raccoon Story\GoogleMobileAdsPlugin\build\intermediates\library_manifest\debug\AndroidManifest.xml:14:9-16:36
	android:value
		ADDED from [:GoogleMobileAdsPlugin] G:\UnityProjects\theracoonstory\GradleBuild\The Raccoon Story\GoogleMobileAdsPlugin\build\intermediates\library_manifest\debug\AndroidManifest.xml:16:13-33
	android:name
		ADDED from [:GoogleMobileAdsPlugin] G:\UnityProjects\theracoonstory\GradleBuild\The Raccoon Story\GoogleMobileAdsPlugin\build\intermediates\library_manifest\debug\AndroidManifest.xml:15:13-69
meta-data#com.google.android.gms.ads.APPLICATION_ID
ADDED from [:GoogleMobileAdsPlugin] G:\UnityProjects\theracoonstory\GradleBuild\The Raccoon Story\GoogleMobileAdsPlugin\build\intermediates\library_manifest\debug\AndroidManifest.xml:17:9-19:59
	android:value
		ADDED from [:GoogleMobileAdsPlugin] G:\UnityProjects\theracoonstory\GradleBuild\The Raccoon Story\GoogleMobileAdsPlugin\build\intermediates\library_manifest\debug\AndroidManifest.xml:19:13-56
	android:name
		ADDED from [:GoogleMobileAdsPlugin] G:\UnityProjects\theracoonstory\GradleBuild\The Raccoon Story\GoogleMobileAdsPlugin\build\intermediates\library_manifest\debug\AndroidManifest.xml:18:13-69
meta-data#com.google.android.gms.ads.DELAY_APP_MEASUREMENT_INIT
ADDED from [:GoogleMobileAdsPlugin] G:\UnityProjects\theracoonstory\GradleBuild\The Raccoon Story\GoogleMobileAdsPlugin\build\intermediates\library_manifest\debug\AndroidManifest.xml:20:9-22:36
	android:value
		ADDED from [:GoogleMobileAdsPlugin] G:\UnityProjects\theracoonstory\GradleBuild\The Raccoon Story\GoogleMobileAdsPlugin\build\intermediates\library_manifest\debug\AndroidManifest.xml:22:13-33
	android:name
		ADDED from [:GoogleMobileAdsPlugin] G:\UnityProjects\theracoonstory\GradleBuild\The Raccoon Story\GoogleMobileAdsPlugin\build\intermediates\library_manifest\debug\AndroidManifest.xml:21:13-81
